CADA; 54,57,58,24,3,64,52,51,44,23,22,7,4,2,69,68,66,65,63,56,55,53,50,48,42,37,36,35,32,26,25,19,16,12,8;
CADASTRADA; 30,7;
CADASTRADAS; 57,65,20;
CADASTRADO; 30,2,54,6,69,65,55,52,34,16,7,5;
CADASTRADOS; 58,2,57,65,52,34,30,29,28,27,20,17,13;
CADASTRAR; 58,55,54,30,6,2,65,50,35,32,28,27,4;
CADASTRO; 6,2,58,57,55,7,4,65,30,3,50,17,32,16,8,35,29,22,64,27,26,69,56,54,47,44,37,25,23,20,13,62,52,41,31,28,19,18,14,12,11,10,9;
CADASTROS; 6,65,64,63,55,47,4,3,2;
CAIXA; 64,58,53,34,7,61,25,22,16;
CALCULA; 7,57,54,52,47,45,30,24,23,21,17;
CALCULA-SE; 50;
CALCULADA; 24,21,17,44,22,54;
CALCULADAS; 50,2;
CALCULADO; 61,24,2,62,54,15,52,50,47,21,17,16;
CALCULADORA; 34,29;
CALCULADOS; 7,62,61,49,24,22;
CALCULANDO; 22;
CALCULAR; 7,50,58,56,54,24,23,21,59,49,45,44,40,28,25,2;
CALCULARÁ; 30,25,23;
CALCULE; 50;
CALCULÁ-LO; 50;
CALL; 28;
CAMINHO; 44,50,37,55,21,52,47,6,64,35,32,25,5;
CAMPO; 23,50,49,55,44,57,37,69,47,53,35,30,17,7,42,3,68,58,56,54,46,43,41,36,25,24,71,51,48,38,34,33,32,29,21;
CAMPOS; 55,47,50,43,17,44,65,63,53,51,49,39,38,6,4,3,57,56,41,37,35,30,24,16;
CANCELADO; 51;
CANCELAR; 3;
CANTO; 48;
CAPACIDADE; 3;
CAPITAL; 52,7;
CAPTURA; 62;
CAPTURAR; 49;
CARACTERES; 68,6;
CARACTERÍSITCA; 56;
CARACTERÍSTICAS; 69,66;
CARGA; 5,58,36,32;
CARGO; 62,51;
CARREGADAS; 2,6,5;
CARREGADO; 57,2;
CARREGADOS; 44;
CARTEIRA; 17,22,64,7,21,16,58,42,2,50,24,57,65,20,23,8,25,56,54,19,55,52,34,18,4,53,36,35,69,59,47,11,9,3,61,49,12,6;
CARTEIRA-MÃE; 7;
CARTEIRAS; 2,22,18,65,56,54,7,69,64,57,58,55,24,17,8,70,59,42,20,19,16,3;
CARTEIRAS-FILHAS; 7;
CASA; 44,37;
CASAS; 17,30;
CASO; 24,57,2,54,17,30,50,5,47,58,52,55,25,23,62,34,21,4,49,37,3,65,56,51,42,35,14,13,7,68,64,44,36,29,16,69,61,53,45,27,22,6,66,59,40,19,12,11,10,9;
CASOS; 7,43,57,52,50,47,23,55,39,34,24,17,5,4;
CATEGORIA; 57,56,47,26,17;
CATEGORIAS; 57,26;
CBLC; 30,43,2;
CDB; 57,30,2,29;
CDBS; 33,29,2;
CDI; 4,47,33,20,5;
CDIX; 2,52;
CENTRAL; 68,59,48,30;
CERTAS; 40;
CERTIFICADO; 24;
CERTO; 2;
CETIP; 30,17,7,57,49,25;
CETIPADOS; 17;
CHAMADA; 32;
CHECADAS; 2;
CHECAGEM; 2,62,50;
CHECAR; 55,50,6,2;
CHECK; 55,37,6,62,56,45,44,40,20;
CHECÁ-LAS; 62,61;
CHEGAR; 34;
CICLO; 53;
CIMA; 56,47,35,17;
CLARO; 47,30;
CLASSE; 30;
CLEARING; 49;
CLICA; 68,3;
CLICADO; 71,45,40,11,10;
CLICANDO; 52,5,43,3,62,49,39,71,65,61,48,44,38,27,6;
CLICAR; 3,55,44,5,57,50,47,70,37,35,30,64,62,48,45,43,40,38,34,32,31,19,12,66,65,61,52,49,39,36,27,25,24,23,11,10,6,4;
CLIENTE; 7,2,6,58,12,54,13,37,16,62,61,50,11,64,42,10,69,57,44,43,15,14,53,52,17,59,47,9,8,3,65,49,48,22,70,45,41,40,39,34,21,18,4,67,60,55,38,36,29;
CLIENTE-BMF; 13;
CLIENTE-BOLSA; 41,13;
CLIENTES; 65,7,61,9,54,2,64,62,70,69,67,59,58,44,8,60,55,52,34,16,15,12;
CLIQUE; 71,44,65,35,30,18,9;
CLONADO; 30;
CLONAR; 44,30;
CLUBE; 17,50,55,2,21,7,70,58,54,35,24;
CLUBES; 2,7,50,64,17,58,24,70,55,53,29,21,16;
CMDF; 52;
CME; 28;
CNPJ; 35,55,6;
COBERTURA; 42;
COBRA; 17,24;
COBRADA; 24;
COBRADAS; 40;
COBRADO; 23;
COBRAM; 43;
COBRANÇA; 17;
COBRE; 24;
COERENTE; 61,50;
COERENTES; 2;
COEXISTIR; 40;
COEXISTIREM; 25,24,23;
COFI; 57;
COLAR; 66;
COLOCADA; 44;
COLOCADAS; 68;
COLOCADO; 37;
COLOCADOS; 7,68,44;
COLOCAR; 17,47,65,53,52,44,38,7,6;
COLUNA; 71,54,18,9;
COLUNAS; 66;
COM; 64,2,57,7,58,54,30,4,62,61,50,47,56,55,36,21,70,69,51,37,24,22,3,53,34,28,27,17,66,65,52,46,44,43,41,40,23,12,68,63,49,45,38,35,33,29,26,25,20,18,16,15,14,11,6;
COMBINAÇÃO; 3;
COME; 50;
COME-COTAS; 58;
COMECARÁ; 7,2;
COMECOTAS; 50,58,17;
COMEÇA; 56;
COMEÇAR; 35;
COMEÇO; 50;
COMISSÃO; 43;
COMO; 24,58,20,7,6,2,56,55,30,16,57,54,53,45,40,17,8,71,35,34,23,21,69,67,64,63,62,50,18,9,4,68,65,61,59,52,33,32,31,29,27,26,25,13,10;
COMPARADO; 20;
COMPARANDO; 2;
COMPARAR; 56;
COMPARATIVA; 56;
COMPARATIVO; 4,56,7;
COMPARATIVOS; 64,20;
COMPARAÇÃO; 24,4;
COMPENSADO; 17;
COMPENSAR; 21;
COMPENSAÇÃO; 17;
COMPLEMENTARES; 2;
COMPLETA; 70,33,23,5;
COMPLETADO; 6;
COMPLETAMENTE; 10;
COMPLETO; 66,7,6;
COMPLEXIDADE; 3;
COMPLIANCE; 27;
COMPOR; 50;
COMPORTAMENTO; 56;
COMPORTAR; 7;
COMPOSIÇÃO; 2,64,20,53,30,17;
COMPOSTO; 20;
COMPRA; 47,44,57,37,2,30,53,52,28,4;
COMPRADAS; 47;
COMPRADO; 3;
COMPRANDO; 47,44,37;
COMPRAR; 44,37;
COMPRARAM; 3;
COMPRAS; 47,16;
COMPREENDE; 58;
COMPROMISSADAS; 47;
COMPROMISSO; 47;
COMPROU; 47;
COMPULSÓRIO; 43,50;
COMPUTADO; 49;
COMPUTADOS; 2;
COMPUTAR; 49,22;
COMUM; 44,40,37;
COMUNS; 52,25,3;
CONCEITO; 50,53,21,16,2;
CONCEITUALMENTE; 16;
CONCENTRAÇÃO; 56;
CONCESSÃO; 69;
CONCILIAÇÃO; 2;
CONDIÇÃO; 50,61;
CONDIÇÕES; 66,62,61,58;
CONFERIR; 52;
CONFIGURA; 65;
CONFIGURADOS; 65,57;
CONFIGURAR; 51;
CONFIGURAÇÁO; 68;
CONFIGURAÇÃO; 68,65,57,56,54,51;
CONFIGURAÇÕES; 68,57,54;
CONFIRA; 35;
CONFIRMA; 69;
CONFIRMADA; 3;
CONFIRMAR; 3,4;
CONFIRMAÇÃO; 69;
CONFORME; 57,55,51,65,54,50,36,3,61,58,52,43,32,30,6,4,71,69,68,64,59,53,49,48,47,45,44,41,40,38,37,35,34,27,20,19,12,11,10,8,5;
CONHECIDAS; 50;
CONJUNTO; 64;
CONSECUTIVOS; 71,62;
CONSEGUE; 52,23,25,24;
CONSEGUEM; 71;
CONSEGUINTE; 7;
CONSEQUENTEMENTE; 21,2;
CONSIDERA; 24,23,25;
CONSIDERADAS; 30;
CONSIDERADO; 2;
CONSIDERADOS; 2;
CONSIDERANDO; 24,36,5;
CONSIDERAR; 50,35,17,34,33,23,22,2;
CONSIDERARÁ; 23;
CONSISTE; 58,21,2;
CONSOLIDA; 24;
CONSOLIDADA; 57,22,17,7;
CONSOLIDADAS; 65,7;
CONSOLIDADO; 64,57,65,17,56,49,30,27;
CONSOLIDADOS; 69,16;
CONSOLIDANDO; 22;
CONSOLIDAR; 56;
CONSOLIDAÇÃO; 2;
CONSULTA; 66,64,25,24,23,3,36,22,2;
CONSULTADOS; 61,2;
CONSULTAR; 25,24,23,67,66,64,57,53;
CONSULTAS; 64,66,30,27,17,2,55,53,20,18,9,6,3;
CONT; 17;
CONTA; 53,14,57,2,13,21,64,34,30,7,65,59,42,24;
CONTA-CORRENTE; 64,4,2,53;
CONTABILIDADE; 57,53;
CONTABILIZA; 57;
CONTABILIZADA; 57;
CONTABILIZADO; 57,24;
CONTABILIZADOS; 57;
CONTABILIZAR; 57;
CONTABILIZAÇÃO; 57,53;
CONTACORRENTE; 21;
CONTADOS; 25,24,23,17;
CONTAGEM; 24,23,17,25,50,49,35,30,36,33;
CONTAR; 43,17;
CONTAS; 57,14,4;
CONTAS-CORRENTES; 14,4;
CONTENTO; 50;
CONTEXTO; 68;
CONTEXTOS; 40;
CONTIDA; 27;
CONTINUAÇÃO; 11,10;
CONTRA; 25;
CONTRATATO; 64;
CONTRATO; 43,49,44,39;
CONTRATOS; 64;
CONTRIBUIÇÃO; 64;
CONTROLA; 7;
CONTROLADA; 50,17,7,2;
CONTROLADO; 70,67,55,50,21,2;
CONTROLADOS; 22;
CONTROLAR; 7,42;
CONTROLE; 7,2,55,58,25,16,51,50,42,64,54,35,24,23,22,18;
CONTRÁRIO; 17,30,24,2,58,49,23,21,7;
CONTUDO; 57,66,62,51,36,21,8,2;
CONTUINIDADE; 62,61;
CONTÁBEIS; 57;
CONTÁBIL; 57,53,16;
CONTÉM; 58;
CONVENCIONAL; 21;
CONVERGIR; 17;
CONVERSÃO; 17,4,52,50,35,55;
CONVERSÍVEL; 30;
CONVERSÕES; 58;
CONVERTE; 50;
COPIA; 6,2;
COPIADAS; 7;
COPIAR; 11,5;
COPIARÁ; 5;
CORPO; 65,51;
CORRENTE; 53,14,57,21,2,64,65,59,36,17,7;
CORRENTES; 14,4;
CORRESPONDE; 2;
CORRETA; 57,51,50;
CORRETAGEM; 44,37,45,40,64,2,46,41;
CORRETAMENTE; 57,50,65,52,7;
CORRETO; 21,2;
CORRETORA; 44,37,13,43,14,41,4,2,49,46,42,57,52,47,38;
CORRETORAS; 13,7,52,2;
CORREÇÃO; 31,34,59;
CORRIDOS; 17,30,24,23,50,35,25,49;
CORRIGIDA; 31;
COSIF; 57;
COTA; 17,2,21,24,16,5,64,7,55,50,23,19,58,25,22,20,61,59,56,35,18,11;
COTAS; 50,17,5,21,35,16,7,64,2,57,55,22,19,12;
COTAÇÃO; 5,7,49,3,2,32,30,28,21,18;
COTAÇÕES; 5,2,32,61,49,15;
COTISTA; 55,64,50,58,2,7,6,70,69,51,3,67,54,16;
COTISTAS; 70,55,65,58,50,69,64,16,54,51,21,17;
COTIZADAS; 2;
COTIZAÇÃO; 50,35,17,55;
CP; 17;
CPF; 6,55;
CRI; 34,30,29,2;
CRIA; 11,7;
CRIADA; 54,14,44,37,7;
CRIADO; 69,56,6,57,55,54,44,7,4;
CRIADOS; 56,70,69,57,37,31,4;
CRIANDO; 66,31;
CRIAR; 8,69,44,4,56,55,25,24,23,22,20,6,2,67,53,37,31,30,16;
CRIAÇÃO; 56,66,69,11,64,57,55,44,51,4,2;
CRIE; 37;
CRIS; 31,2;
CRITÉRIO; 56;
CRITÉRIOS; 56,2;
CRÉDITO; 57;
CRÍTICA; 51;
CRÍTICO; 10;
CUIDADO; 51,30;
CUNHO; 56;
CUPOM; 30;
CURTO; 17;
CURVA; 30,49,2;
CURVAS; 49;
CUSTO; 52,50,7,46,41,40,17;
CUSTODIADA; 42;
CUSTODIANTE; 7,41,42,17,46,4;
CUSTOMIZADO; 17;
CUSTOMIZADOS; 4;
CUSTOS; 45,40,44,37,64,43,2;
CUSTÓDIA; 41,46,30,7,64,61,59,27;
CVM; 17,7,35,64;
CÁLC; 24;
CÁLCULO; 61,24,17,23,34,2,50,25,15,56,54,49,37,29,22,7,62,57,44,43,30,21,16,59,58,52,51,48,47,42,35,6,4;
CÁLCULOS; 24,22,2;
CÓD; 30,17,7,27,28;
CÓDIGO; 7,52,23,30,13,17,57,44,28,27,14,43,37,35,22,16,6,3,2;
CÓDIGOS; 35,13,7,57,44;
CÓPIA; 11;
CÔMPUTO; 7;
