ABA; 7,17,5,50,44,37,2,58,55,47,35,3,57,56,54,52,41,32,31,27,22,20;
ABAIXO; 57,55,54,53,71,35,23,17,6,3,65,64,61,58,52,50,49,48,43,42,41,30,24,7,5,4,69,68,62,56,51,47,46,45,44,40,38,37,36,34,33,32,27,25,22,20,8,2;
ABAS; 13,3;
ABERTA; 3,57,35;
ABERTAS; 3;
ABERTO; 61,2,62,49,15;
ABERTOS; 2,64;
ABERTURA; 61,2,17,15,64,62,59,43;
ABRANGEM; 65;
ABRE; 55,43,50,49,39,38,35,3;
ABRINDO; 49;
ABRIR; 3,6;
ABRIU; 49;
ABSOLUTO; 56;
ACATA; 22;
ACATADO; 44;
ACATANDO; 50;
ACESSADAS; 5,2;
ACESSANDO; 58,57;
ACESSAR; 69,66,63,55,50,41;
ACESSO; 69,67,2,70,68,63,55,27,7;
ACESSOS; 69,70;
ACHADO; 66;
ACHE; 47,42,37;
ACIMA; 54,24,21,58,57,56,52,45,22,19,12,6;
ACIONADO; 3;
ACOMPANHAR; 55,7;
ACONSELHÁVEL; 27;
ACORDO; 54,57,56,33,30;
ACRÉSCIMO; 52;
ACUMULA; 25;
ACUMULADO; 24;
ACUMULADOS; 25,24,23;
ACUSAR; 56;
ADEQUAR; 50;
ADIANTE; 65,2;
ADICIONA; 5;
ADICIONAIS; 6;
ADICIONAL; 21;
ADICIONAR; 63,5;
ADM; 23,57;
ADMINISTRADA; 17,54,64,16;
ADMINISTRADAS; 54,24,2,55,17,7;
ADMINISTRADOR; 17,68,50,69,64,5,4;
ADMINISTRADORES; 2;
ADMINISTRATIVA; 69;
ADMINISTRATIVO; 69;
ADMINISTRAÇÃO; 23,54,57,64,16;
ADR’S; 27;
ADVERSA; 68;
ADVINDA; 54;
AFERIR; 16;
AFETAM; 21;
AFIN; 7;
AFINIDADE; 7;
AGENDA; 31,50;
AGENTE; 13,54,42,4,2,49,48,47,43,38;
AGENTES; 54,4;
AGILIDADE; 65;
AGILIZA; 6;
AGILIZAR; 8;
AGREGA; 64;
AGREGAR; 7;
AGREGAÇÃO; 34;
AGRUPADA; 64;
AGRUPADOS; 64;
AGRUPAMENTO; 17,66;
AGRUPAMENTOS; 66;
AGRUPANDO; 65;
AGUARDANDO; 61,15,2;
AGUARDAR; 50;
AGÊNCIA; 14,4;
AGÊNCIAS; 4;
AGËNCIA; 14;
AI; 29;
AINDA; 58,65;
AJUDAR; 64,55,50,47,44,37;
AJUSTADA; 43,39;
AJUSTADO; 65,50;
AJUSTANDO; 35;
AJUSTAR; 58,50,43,39,2,57,36,6,3;
AJUSTE; 39,43,61,57,62,59,53,21;
AJUSTES; 50,42,59;
ALERTA; 65,36,27,11,10;
ALERTARÁ; 3;
ALFANUMÉRICO; 7;
ALGO; 56;
ALGUM; 65,61,58,55,49,21,2,70,57,56,24,15,7,6,5,4,3;
ALGUMA; 62,3,61,43,53,39,22,11,5,52,50,49,47,38,36,24,23,21,12,7;
ALGUMAS; 5,70,66,56,55,27,17,3;
ALGUNS; 3,64,57,56,49,5,2;
ALIMENTADA; 5;
ALIMENTAÇÃO; 57;
ALOCADOS; 34;
ALOCAÇÃO; 7;
ALTA; 53;
ALTERA; 57,19,12,10;
ALTERADA; 42,69,50,5;
ALTERADAS; 70,2;
ALTERADO; 51,50,37,24,7;
ALTERANDO; 42,6;
ALTERAR; 3,70,57,36,30,24,61,58,50,28,27,17,11,10,7;
ALTERAÇÃO; 19,12,10,62,3,57,55,50,48,42,36,24,17,7;
ALTERAÇÕES; 50,36,30,2;
ALTERE; 35;
ALTERNATIVA; 21,2;
ALTERNATIVAS; 10;
ALUGUEL; 43;
ALÇADAS; 51;
ALÉM; 64,52,66,61,51,50,36,22;
ALÍQUOTA; 55;
AMBIMA; 5,7;
AMBOS; 56,50,44,21,17,6,5;
AMORTIZAÇÃO; 31,50,29,30,2;
AMORTIZAÇÕES; 50;
AMPLA; 64;
AMPLO; 66;
ANALISAR; 58;
ANALITICAMENTE; 64;
ANALÍTICA; 57,50;
ANALÍTICO; 69;
ANBID; 25;
ANBIMA; 35,30,5,2,17;
ANDIMA; 5;
ANO; 49,24,23,64,30,4;
ANOTAR; 21;
ANTECIPADA; 49,43;
ANTECIPADO; 43,38;
ANTECIPAR; 49,43,38;
ANTECIPAÇÃO; 49,43,38;
ANTERIOR; 52,2,64,59,50,47,17,68,62,58,53,36,24,22,21,12,7,5;
ANTERIORES; 2,57,56;
ANTERIORMENTE; 30;
ANTES; 30,17,16,4,68,62,50,44,36,27,25,23,3,2;
ANTIGA; 24,58,47;
ANTIGO; 24;
ANULAR; 21,7;
ANÁLISE; 64,15,2;
AO; 7,55,3,50,30,2,69,44,24,21,65,54,53,64,47,37,34,25,5,71,62,57,52,23,18,17,68,61,56,49,31,16,12,9,67,51,45,43,42,40,38,32,22,20,19,14,13,6,4;
AOS; 65,57,2,56,54,7;
APARECEM; 7;
APARECER; 51,4;
APAREÇAM; 70;
APELIDO; 6,55;
APENAS; 64,7,17,69,30,24,23,55,27,65,58,47,44,28,2,54,49,48,42,21,4,57,56,53,52,50,43,22,11,8,6,5,3;
APERTANDO; 3;
APLIC; 17,64,65;
APLICA; 52,70,65,57,55,21,5,54,50,45,40,34,24,22,17;
APLICADA; 55,54,2;
APLICADO; 54,37,24,18,9,7;
APLICADOS; 68,2;
APLICAM; 54,47,17;
APLICANDO; 55,50,4;
APLICANDO-SE; 24;
APLICAR; 70,44,34;
APLICARÃO; 56;
APLICAÇÃO; 50,17,55,64,58,24,35,23;
APLICAÇÕES; 64,17,58,55,50,57,53,51,21;
APLICÁVEL; 17,23,65,58,28,27,69,7,64,47,44;
APORTE; 21,2,7;
APORTES; 2,21,53,17,7;
APRESENTA; 2,61,15,36;
APRESENTADA; 70;
APRESENTADO; 34;
APRESENTADOS; 2;
APRESENTAM; 61,2;
APRESENTAR; 64,15,2;
APRESENTAÇÃO; 64;
APROPRIADAS; 4;
APROPRIADO; 24,25,23;
APROPRIADOS; 25;
APROPRIAÇÃO; 23,24,25,34,49,30;
APROVADO; 51;
APROVAR; 51;
APROVAÇÃO; 51,69;
APTO; 58;
APTOS; 7;
APURA; 7;
APURAÇÃO; 24,7,23,2;
APÓS; 2,50,35,17,3,61,55,44,30,70,64,57,49,43,37,34,32,24,15,6,68,63,62,58,54,52,51,48,47,45,40,39,38,31,25,23,20,18,5;
AQUELA; 2,58;
AQUELAS; 69,49,2;
AQUELES; 58,61;
ARBITRAR; 57,22;
ARQUIVO; 52,27,5,44,37,2,55,50,47,32,31;
ARQUIVOS; 2,52,37,5,44,27,13,55,7;
AS; 2,64,7,5,58,50,69,57,51,54,30,6,55,66,56,44,40,70,65,63,47,45,41,22,61,49,37,24,17,16,11,3,68,67,62,59,52,48,46,35,34,29,26,25,20,19,18,15,14,13,12,10;
ASSEGURAR; 47;
ASSESSOR; 7;
ASSETS; 7;
ASSIM; 52,24,68,50,23,69,64,59,57,44,36,35,33,25,4;
ASSOCIADA; 24,56,30,53,47,44,37,32,26,9,7;
ASSOCIADAS; 57,18;
ASSOCIADO; 57,23,65,56,44,7,67,54,37,21,18,16;
ASSOCIADOS; 67,65,57,70,56,54,53,30,7;
ASSOCIAR; 55,69,65,54,13;
ASSOCIAÇÃO; 57,65,56,4,2;
ASSUMINDO; 54,4;
ASSUMIR; 47;
ASSUMIRÁ; 52;
ASSUNTO; 65;
ASTERISCO; 3;
ATENDA; 64;
ATENDE; 64;
ATENDENDO; 64;
ATENTANDO; 54;
ATENTAR; 58,62,52,61,54,43,7;
ATENÇÃO; 50;
ATINGIDO; 23;
ATINGIR; 62;
ATIVA; 70,49,71,18,17,9;
ATIVADO; 56;
ATIVAR; 71,18,9;
ATIVAS; 64,70,20;
ATIVAÇÃO; 71,18,9,67;
ATIVO; 52,44,57,64,42,37,28,27,4,21,7,5,2,71,43,30,26,23,18,9,69,56,55,46,41,17,70,58,48,24;
ATIVOS; 64,2,7,58,29,26,28,52,27,35,21,56,53,16,4,63,62,50,46,44,41,32,22;
ATRASADA; 22;
ATRAVÉS; 2,58,44,37,31,52,51,50,45,36,32,30,24,5;
ATRELADA; 49,30,29;
ATRELADO; 30,57;
ATT-CONTÁBIL; 57;
ATTRIBUTIONS; 7;
ATUAIS; 70,48,41,25,15;
ATUAL; 52,68,63,62,59,57,51,50,47,42,41,37,21;
ATUALIZA; 3,57,22;
ATUALIZADA; 3;
ATUALIZADO; 29;
ATUALIZAR; 3,19,12;
ATUALIZAÇÃO; 19,57,12,10,3;
ATUALMENTE; 70,45;
ATÉ; 62,24,68,65,54,71,61,59,58,36,34,25,18,9,5,4;
AUMENTANDO; 24;
AUTENTICAÇÃO; 68;
AUTOMATICAMENTE; 52,47,37,71,57,55,50,49,44,43,42,41,38,9,3;
AUTOMÁTICA; 57,2,50,7,53,52,21,5,69,68,63,59,46,44,43,41,37,35,4;
AUTOMÁTICO; 65,47,7;
AUXILIA; 3;
AUXILIAR; 2;
AVALIA-SE; 24;
AVALIANDO-SE; 17;
AVALIAR; 21,20,17;
AVALIAÇÃO; 17,2,24,23;
AVANÇA; 62;
AVANÇADO; 35;
AVANÇAR; 62,58;
AVANÇO; 62;
AÇÃO; 63,57,56,43,27,23;
AÇÕES; 56,58,27,7,2,64,57,37,5,43,38,39,53,52,48,42,41,26,23,17,16;
