OBJETIVA; 2;
OBJETIVO; 2;
OBSERVADA; 12;
OBSERVADOS; 2;
OBTER; 4;
OBTEVE; 13;
OBTIDO; 11;
OBTIDOS; 11;
OCORRIDAS; 4;
OCORRIDOS; 6,4;
ODEM; 5;
OPERACIONAIS; 7,5;
OPERADOS; 4,9;
OPERAÇÃO; 6,2;
OPERAÇÕES; 5,6,4;
OPEROU; 13;
OPÇÃO; 3;
OPÇÕES; 7,4;
OS; 9,4,15,12,6,13,11,7,5,3,2;
OSCILAÇÃO; 12;
OSCILAÇÕES; 12;
OU; 7,6,5,15,9,4,12,11;
OUTRO; 10;
