CABE; 2;
CABEÇALHO; 2;
CADA; 11,9,4;
CAMPO; 2;
CAMPOS; 15;
CARACTERÍSTICAS; 9,3,2;
CARTEIRA; 4,3,13,12,11,9,2,15,14,10;
CARTEIRAS; 9,12,3;
CASO; 4;
CATEGORIA; 4,7,5;
CATEGORIAS; 9,4;
CDI; 11;
CHECAR; 9,4;
CITAR; 11;
CLARA; 2;
CLICANDO; 4;
CLICANDO-SE; 9;
CLICAR; 2,4;
CLIENTE; 1,6,4,3,2;
CLIENTES; 2,1;
COBRADO; 6;
COLUNAS; 12,9;
COM; 15,11,10,9,6,5,2;
COMO; 11,4;
COMPARADA; 11;
COMPARADO; 11;
COMPARATIVO; 14,11;
COMPARATIVOS; 15;
COMPARAÇÃO; 15,10;
COMPARÁ-LO; 10;
COMPLEMENTAR; 4;
COMPLETA; 9;
COMPLETAR; 9;
COMPORTAMENTO; 13;
COMPOSIÇÃO; 4,3;
COMPRA; 6,7,5;
COMPRAS; 4;
CONCEITOS; 2;
CONFORME; 4;
CONSIDERADAS; 12;
CONSTAR; 15;
CONSULTA; 4;
CONTA; 4;
CONTIDOS; 15;
CONTRA; 11;
CONTROLANDO; 4;
CONTROLE; 4,12;
CORRENTE; 4;
CORRESPONDE; 7,5,4,12,6;
CORRESPONDEM; 2;
CRITÉRIOS; 9;
CUJOS; 9;
CURVA; 4;
CUSTO; 7,5;
CUSTOS; 7,5;
