0xu0031;12;12;
0xu0035;500;500;
0xu0041;ABAIXO;AÇÕES;
0xu0042;BAIXO;BÁSICOS;
0xu0043;CABE;CUSTOS;
0xu0044;DA;DURANTE;
0xu0045;EFEITOS;EXTRATOS;
0xu0046;FEDERAL;FÍSICA;
0xu0047;GERAIS;GUIA;
0xu0048;HISTÓRICO;HISTÓRICO;
0xu0049;IDENTIFICAÇÃO;IR;
0xu004a;JANELA;JURÍDICA;
0xu004c;LINHA;LÍQUIDO;
0xu004d;MAIOR;MÊS;
0xu004e;NA;NÃO;
0xu004f;OBJETIVA;OUTRO;
0xu0050;PAPEL;PU;
0xu0051;QUADRO;QUESTÃO;
0xu0052;REALIAR;RISCO;
0xu0053;SALDO;SÃO;
0xu0054;TABELAS;TÍTULOS;
0xu0055;UM;UTILIZANDO-SE;
0xu0056;VALOR;VOL;
0xu00c0;ÀS;ÀS;
0xu00c1;ÁREA;ÁREA;
0xu00cd;ÍNDICE;ÍNDICE;
0xu00da;ÚTIL;ÚTIL;
