QTDE; 52,17,21;
QUADRADO; 3;
QUADRO; 66;
QUAIS; 65,64,56;
QUAISQUER; 59,34,29;
QUAL; 42,24,55,50,25,23,69,53,51,49,44,37,31,27,7;
QUALQUER; 65,52,17,3,2,62,59,55,54,53,47,42,34,26,25,71,70,69,66,61,57,50,48,37,36,27,24,23,22,21,16,7,6,5,4;
QUANDO; 3,52,7,2,68,58,44,62,57,56,55,50,47,37,27,22,21,17,10,8;
QUANTAS; 61;
QUANTIDADE; 52,21,44,42,17,48,43,64,50,47,46,41,37,55,54,38,22,2;
QUANTIDADES; 52,50,44,21;
QUANTO; 2,64,51,50,41,23;
QUANTOS; 68;
QUASE; 2;
QUE; 58,64,3,50,61,2,62,16,56,51,22,6,69,65,54,47,30,21,17,70,57,52,36,12,5,55,44,43,37,35,27,4,71,66,59,49,45,42,40,33,25,23,18,68,48,39,34,24,9,7,67,63,53,46,41,32,31,29,28,20,19,14,13,10,8;
QUEDA; 7;
QUEIRA; 58,55,47,24,70,65,50,45,42,40,37,25,23,21,17,6;
QUEM; 64;
QUER; 7,57,55,53,49,44,37,25,24,23,21,19,13,12,5;
QUESTÃO; 63,57,42,31,4;
QUESTÕES; 7,6;
