VAI; 7,49,57,52,44,42,22,5,66,65,51,50,48,37,35,24,21,20,17,13,6,3;
VALE; 64,21,4,2;
VALENDO; 50;
VALER; 44,37,25,23;
VALIDAÇÃO; 17,69;
VALOR; 23,21,24,54,17,50,52,44,25,49,56,55,53,43,31,7,47,37,29,16,2,68,64,45,40,32,28,4;
VALORES; 22,64,58,50,56,45,54,53,40,25,16,57,30,24,23,17,4;
VALORIZADAS; 22;
VAREJO; 7;
VARIAÇÃO; 64;
VARIÁVEIS; 30,29;
VARIÁVEL; 33,23,17,7;
VEM; 4,52,37,35,27;
VENCER; 64;
VENCERAM; 58;
VENCIMENTO; 53,43,49,30,47,44,28,27,64,39,38,3,2;
VENCIMENTOS; 64,44,27;
VENDA; 47,44,37,2,53,30,28,4;
VENDAS; 47,7;
VENDENDO; 47,44,37;
VENDER; 44,37;
VENDEU; 47;
VER; 58,2,7,29,64,6,17,23,20,4,69,54,53,50,48,37,36,30,27,22,21,16,15,14,13,5;
VERDADE; 34;
VERDE; 66;
VERIFICA; 5;
VERIFICADO; 6;
VERIFICAR; 35,30,7;
VERIFICARÁ; 7;
VERIFICAÇÃO; 56,52,2;
VERMELHO; 3,56,17;
VERSÃO; 1;
VERÁ; 69;
VERÃO; 69;
VEZ; 19,12,69,65,59,57,51,50,49,22,21,16,6,3;
VEZES; 3,66,43,35,68,64,62,61,55,50,49,48,39,38;
VIA; 58,6,2,69,62,57,52,44,35,32,29,24,21,16,8;
VICE-VERSA; 17;
VIGORAR; 25,24,23;
VINCULADAS; 70,57,50;
VINCULADO; 7,69,17,4;
VINCULADOS; 69,67,64,54,53;
VINCULAR; 53;
VINHA; 17;
VIR; 17;
VIRA; 51;
VIRTUAL; 29,7;
VIRÁ; 4,3;
VIRÃO; 63;
VISTA; 27,3;
VISTO; 64,58,69,61,36,10,2;
VISUAL; 4;
VISUALIZADAS; 18;
VISUALIZADOS; 56;
VISUALIZAR; 69,64;
VISUALIZAÇÃO; 67,44,24,23;
VISUALIZÁVEL; 51;
VISÃO; 54,69,17;
VISÍVEL; 55;
VISÕES; 64;
VL; 23;
VOLATILIDADE; 64;
VOLTA; 47,50;
VOLTAR; 2;
VOLTAREM; 71,18,9;
VOLUNTÁRIO; 43;
VÁRIAS; 3,69,43,39,19,12,2;
VÁRIOS; 44,65,62,57,30,12,8,2;
VÊM; 28;
VÍNCULO; 56,4;
VÍNCULOS; 22;
VÍRGULA; 7,65,51,44;
