ULTRAPASSADO; 56,23;
UM; 2,54,21,69,7,6,8,57,56,55,65,62,12,4,67,52,51,44,30,20,61,59,17,16,5,68,64,50,36,35,23,70,58,49,47,37,34,29,27,13,10,3,66,63,53,48,46,43,42,41,39,38,33,32,31,25,11;
UMA; 2,3,44,50,49,47,34,55,66,56,16,14,4,69,65,37,21,19,62,57,24,22,64,59,52,51,35,32,25,7,5,68,58,36,30,27,17,12,70,63,61,54,53,48,42,31,29,28,26,23,15,11,10,9,8,6;
UNIDADE; 16;
UNIFICADOS; 22;
USA; 55,6;
USADA; 7,12,71,53,51,50,30,19,2;
USADAS; 18;
USADO; 17,7,55,24,30,27,57,47,29,23,6,70,69,65,54,53,43,39,32,28,25,21,13,8,4,2;
USADOS; 4,71,65,60,9,3;
USAM; 17;
USANDO; 24;
USAR; 13,6,49,37,17;
USARÁ; 34;
USO; 3,2,64,6,71,36,18,16,9,8,5;
USUAL; 52;
USUÁRIO; 69,3,71,68,66,70,51,4,2,65,64,63,62,45,40,36,27,67,61,59,57,50,44,37,30,12;
USUÁRIOS; 69,71,67,70,51,7,2;
UTILIZADA; 34;
UTILIZADO; 55,3,62,30,2;
UTILIZADOS; 6,4;
UTILIZANDO; 55,4,2;
UTILIZAR; 55,2,47,36,24,16;
UTILIZARÁ; 4;
UTILIZÁ-LO; 30,6;
