NA; 2,57,52,7,3,50,68,30,21,64,61,47,44,43,22,58,55,54,49,37,36,34,23,4,62,51,35,25,24,13,71,69,66,65,59,48,45,42,40,28,17,14,5,70,60,56,53,39,38,32,29,27,20,8;
NACIONAIS; 4;
NACIONAL; 26,4;
NADA; 54,21;
NAS; 7,13,64,49,42,36,26,22,18,17,16,9,6,4,3;
NASCIMENTO; 6;
NAVEGAR; 3;
NECESSARIAMENTE; 24;
NECESSIDADE; 64,44,37,30,19,16,12,11,6,2;
NECESSIDADES; 64;
NECESSITAM; 56,47,2;
NECESSITANDO; 2;
NECESSÁRIA; 66,62,58,56;
NECESSÁRIAS; 61,51;
NECESSÁRIO; 57,50,2,37,30,5,4,69,58,53,42,35,3,62,59,55,54,52,49,48,45,44,43,38,28,27,24,23,22,21,17,7,6;
NECESSÁRIOS; 35;
NEGATIVA; 46,41,34;
NEGATIVAMENTE; 16;
NEGATIVAS; 46,41;
NEGATIVO; 24,53,49,21;
NEGATIVOS; 53;
NEGOCIAÇÃO; 52;
NEGS; 37,2;
NELA; 3;
NELE; 35;
NEM; 70,64,63,21,17,7;
NENHUM; 66,55,25,23,21,7;
NENHUMA; 57,36,5;
NESTA; 7,65,37,44,22,17,67,64,31,15,5,4,2;
NESTE; 56,3,55,68,58,30,24,65,62,59,53,45,40,37,35,21,19,16,12,7;
NESTES; 55,50,22,4;
NET; 57;
NETA; 57;
NETANDO; 57;
NO; 57,50,5,17,58,52,2,30,3,21,55,51,62,61,47,7,4,35,34,23,71,64,54,69,66,49,44,16,65,53,48,32,27,22,8,6,45,37,25,19,12,68,56,46,41,40,24,20,11,10,67,63,59,43,42,38,36,33,31,29,18,14,13,9;
NOCIONAL; 49,28;
NOME; 6,55,5,3,69,50,47,44,37,35,32,31,30,27,8;
NOMINAL; 30,34;
NORMAIS; 44;
NORMAL; 53,44,7;
NORMALMENTE; 52,47,55,43,39,28,27,25,24,23,3;
NORMATIVA; 56;
NOS; 51,17,70,65,64,56,54,41,22,7,4,3,2;
NOTA; 44,37,2;
NOTAR; 51,65,54,50,42,40;
NOTAS; 64,65;
NOVA; 24,3,68,63,52,50,48,37,25,23,16,5,4;
NOVAMENTE; 50,65,64,61;
NOVAS; 41,68,50,25,22,16,8,5,3;
NOVEMBRO; 50;
NOVO; 55,30,6,69,35,68,65,61,57,56,54,36,32,27,20,5,4,2;
NOVOS; 58,3,27,4,69,30,28,8,2,61,55;
NR; 17,43;
NTN-B; 30;
NTN-C; 30;
NTN-F; 30;
NTNB; 30;
NTNC; 30;
NTNS; 29;
NUM; 68,56;
NUMÉRICO; 7,6;
NUMÉRICOS; 68;
NUNCA; 68;
NÃO; 17,7,2,55,61,50,30,21,69,62,58,53,49,57,52,47,34,71,3,66,65,51,36,29,24,23,15,5,4,68,64,56,44,31,27,22,18,13,9,6,59,54,42,37,14,11,70,63,43,40,39,35,32,28,25,16,10;
NÄO; 14;
NÍVEIS; 67,69,22;
NÍVEL; 54,69,67,57,51;
NÚMERO; 17,68,35,50,30,24,23,25,14,55,53,49,43,38,16,6;
NÚMEROS; 68,43,39;
