FACE; 42;
FACILITAR; 65,29,4,2;
FAIXA; 54,23,33;
FAIXAS; 54,23,44,37,33,29;
FALHA; 62,61;
FALHAS; 68;
FALTA; 7;
FALTANTE; 62;
FARÁ; 68,50,36,25,24,23,7;
FATO; 58,62,57,43,2;
FATOR; 52;
FAZ; 7,48,42,30,19,2;
FAZ-SE; 35;
FAZENDO; 65,52,50,22;
FAZER; 5,71,53,34,32,28,25,24,23,21,3,2;
FAÇA; 27,12;
FECHADO; 36,61,2,62,15;
FECHADOS; 2,61,30;
FECHAMENTO; 61,17,62,59,15,5,2;
FECHANDO; 68;
FECHAR; 50;
FECHÁ-LAS; 2;
FEEDER; 28;
FEEDERS; 28,5;
FEITA; 57,2,65,64,55,54,52,50,44,35,5,4;
FEITAS; 58,57,55,53,51,30;
FEITO; 57,16,2,61,56,30,21,4,3,65,62,51,50,43,36,34,10,7,6,5;
FEITOS; 66,65,51,21,6;
FERIADO; 4,7;
FERIADOS; 4,25,24,23,7;
FERRAMENTA; 66,55;
FERRAMENTAS; 29;
FICA; 30,61,47;
FICAM; 5,52,44,7;
FICAR; 52,71;
FICARIA; 54;
FICARÁ; 55,33;
FICARÃO; 56;
FICOU; 50;
FIFO; 55,50,47;
FII; 2;
FILHA; 7;
FILHAS; 7;
FILHOTE; 22;
FILHOTES; 22;
FILTRADAS; 45,40;
FILTRADO; 64,56;
FILTRAGEM; 64,60;
FILTRAR; 63,62,64,61,56,50;
FILTRO; 3,36,25,24,23,7;
FILTROS; 3,56,17;
FIM; 24,25,23,52,56,49;
FINAIS; 66,56,50,47;
FINAL; 62,25,64,23,61,59,52,50,24,19,16,12,7;
FINALIDADE; 64,57,47;
FINALIZAR; 43,39;
FINALMENTE; 65,61,51;
FINANC; 17;
FINANCEIRA; 17,50,35,21;
FINANCEIRAMENTE; 17;
FINANCEIRAS; 47;
FINANCEIRO; 53,21,2,61,59,52,17;
FINANCEIROS; 52,2;
FINANCIAL; 2,3,58,66,36,52,23,7,67,65,64,59,51,34,27,26,25,24,17,6;
FINS; 25,24,23;
FIXA; 30,64,58,47,32,56,29,7,2,23,57,34,31,5,69,61,51,33,26,17,11;
FIXO; 23,37;
FIXOS; 25;
FLUXO; 31,34,64,29,53,21,51;
FLUXOS; 31,30,17,7,2;
FOI; 62,61,59,15,12,7,6,3,2;
FOLHAMATIC; 57;
FONTE; 50,7;
FOR; 3,30,44,23,66,62,61,37,21,17,69,65,57,56,53,49,36,35,27,24,22,7,6,5;
FOREM; 61,12;
FORMA; 50,57,44,2,69,7,37,66,65,64,55,53,24,70,67,63,59,52,49,42,35,21,20,17,68,62,58,56,51,47,46,43,41,33,31,30,25,23,22,16,6,5;
FORMAS; 57,66,55,50,47,44,37,32,31,29,26,24,23,22,6,3,2;
FORMATO; 52,3,66,36,2;
FORMATOS; 64,66;
FORÇA; 71;
FORÇADA; 24;
FORÇADAS; 24;
FORÇAR; 71,68,55,50;
FOTOGRAFIA; 62;
FRENTE; 53;
FREQUENTE; 8;
FRONT; 69,51;
FRONT-OFFICE; 51,69,44,37;
FRONTOFFICE; 69;
FUNCIONA; 59;
FUNCIONALIDADE; 55,64,57,51,32,3;
FUNCIONALIDADES; 69,27;
FUNCIONAMENTO; 30,6;
FUNCIONAR; 50,35,21,17;
FUNCIONARÁ; 21;
FUNCIONE; 50;
FUNDAMENTAL; 53,50,35,30,21;
FUNDAMENTALMENTE; 56,17;
FUNDO; 17,50,54,35,57,55,21,2,58,7,5,64,70,56,24,23,11;
FUNDOS; 50,58,2,54,17,64,5,57,35,7,56,24,21,70,55,53,51,29,26,25,23,16;
FUNÇÃO; 70,12,71,69,64,57,19,16,6,4;
FUNÇÕES; 70,69,67,4,64;
FUTURA; 53,21;
FUTURAS; 36;
FUTURES; 28;
FUTURO; 44,28;
FUTUROS; 64,28,44,62,7,5,57,53,51,46,26,8;
FÍSICA; 55,50,7,2;
FÍSICAS; 52,47;
FÍSICO; 52;
FÍSICOS; 52;
