ECONÔMICO; 17;
ECONÔMICOS; 17;
ECÔNOMICO; 17;
EDITADO; 17,7;
EDITANDO; 65;
EDITAR; 57,51,50,30,25,24,19,12;
EDITÁVEL; 47;
EDIÇÃO; 3,63,50,47,37,36,30;
EFEITO; 55,22,69,65,17;
EFETIVA; 51,57,55,47,31,17;
EFETIVAMENTE; 59,57,7;
EFETIVAÇÃO; 51;
EFETIVO; 31;
EFETUADA; 44,43,37;
EFETUADO; 48,42;
EFETUAR; 59;
EFICIENTE; 2;
ELAS; 3;
ELE; 67,62,69,61,59,52,51,45,40,35,14,13,6,5;
ELEMENTARES; 56;
ELES; 57,52,30;
ELIMINANDO; 50,16,6;
EM; 2,64,7,24,3,50,65,57,52,17,30,56,44,21,5,23,58,55,6,53,37,54,51,34,22,4,59,49,47,43,42,27,12,36,35,25,19,69,61,38,31,71,70,67,62,28,16,63,48,40,39,29,8,68,66,45,26,20,18,11,10,9;
EMAIL; 65,69,51,3,64;
EMAILS; 65,64;
EMBAIXO; 48;
EMBORA; 2,70,22,7;
EMBUTIR; 34;
EMISSOR; 4,30,27,56;
EMISSORES; 4,27,30;
EMISSÃO; 49,30,65,55,34;
EMITIDA; 11,10;
EMITIR; 4;
EMITIRÁ; 65,36,27;
EMOLUMENTO; 45;
EMOLUMENTOS; 7,43;
EMPRESA; 27;
EMPRÉSTIMO; 58,43;
EMPRÉSTIMOS; 64,43;
ENCONTRA; 34;
ENCONTRADAS; 5;
ENCONTRAR; 6,3;
ENDEREÇO; 6;
ENFOQUE; 64;
ENQUADRA; 7;
ENQUADRADAS; 56;
ENQUADRAM; 65;
ENQUADRAMENTO; 56,17,65,2,27;
ENQUANTO; 2,49,21;
ENTENDE-SE; 47;
ENTENDIMENTO; 64;
ENTIDADES; 8;
ENTRA; 3;
ENTRADA; 21,57,53,49,47,29,17,8,2;
ENTRADAS; 2;
ENTRAR; 2,30,27;
ENTRARÃO; 51;
ENTRE; 54,50,49,42,66,58,56,53,52,45,40,30,27,25,24,23,22,21,17,7,6,4,3;
ENTRETANTO; 49,43,38;
ENTÃO; 66,12,70,64,54,50,48,45,40,34,30,24,19,2;
ENVIADO; 51;
ENVIADOS; 65;
ENVIAR; 65,69,51;
ENVIARÁ; 69;
ENVIO; 65,2,64,3;
ENVOLVE; 58,21;
ENVOLVEM; 16,6;
ENVOLVIDA; 21;
ENVOLVIDOS; 64,7;
ENXERGAR; 70;
EQUIPE; 66;
EQUIVALENTE; 50;
EQUIVALÊNCIA; 29,7;
ERRO; 62;
ERROS; 62,71,52;
ES; 54;
ESCALONADAS; 23;
ESCALONAMENTO; 33,29,23;
ESCOLHA; 4,57,55,50,35,6;
ESCOLHE; 47,8;
ESCOLHENDO; 66,5,3;
ESCOLHER; 24,23,65,44,25,5,3,57,17,64,62,55,52,50,47,37,27,70,66,61,59,49,45,40,36,32,31,30,20,11,10,7,6,4;
ESCOLHIDA; 65,57,53,30,2;
ESCOLHIDO; 52,65,61,44,37,69,56,50,49,47,43,36,27,21;
ESCOLHIDOS; 24;
ESCRITA; 56;
ESGOTADO; 10;
ESPEC; 27;
ESPECIAIS; 68,21;
ESPECIAL; 21;
ESPECIFICADA; 48,42;
ESPECIFICADO; 59;
ESPECIFICADOS; 65;
ESPECIFICAR; 69,64,56;
ESPECIFICAÇÃO; 27;
ESPECÍFCOS; 56;
ESPECÍFICA; 34,66,65,63,47,30,11;
ESPECÍFICAS; 36,2;
ESPECÍFICO; 56,4,64,55,50,37,30,17;
ESPECÍFICOS; 64,47,17;
ESPERADO; 2;
ESQUECIMENTO; 69,3;
ESQUERDA; 66;
ESQUERDO; 48,3;
ESSA; 4;
ESSE; 30;
ESSES; 30,24;
ESTA; 2,58,62,57,7,43,30,12,5,4,3,71,68,66,65,64,61,56,54,53,52,51,50,49,47,38,32,24,21,19,16,9;
ESTABELECEM; 7;
ESTABELECENDO; 56;
ESTABELECER; 56,25,24,23;
ESTABELECIDA; 25,23;
ESTABELECIDO; 24;
ESTAR; 58,70,64,36,57,54,30,24,22,4,2;
ESTARÁ; 71,58,36,35;
ESTAS; 66,57,56,45,40,32,4,2;
ESTE; 54,2,61,15,65,57,52,43,7,70,69,62,51,50,44,37,36,30,24,23,21,14,59,56,47,42,33,29,27,26,25,20,16,13,3;
ESTEJA; 68,57,53,13,4,2,50,36,30,27,24,22,17,16,7;
ESTEJAM; 2,57,50,13;
ESTENDER; 3;
ESTENDIDOS; 3;
ESTES; 2,45,61,40,67,62,57,54,52,50,44,37,34,29,21,15,5,4;
ESTIVER; 44,71,68,65,21,6,3;
ESTOQUE; 59,2;
ESTRANGEIRO; 55,26,7;
ESTRATÉGIA; 49,30,27,17;
ESTRITAMENTE; 53;
ESTRUTURA; 57,30,29;
ESTRUTURADOS; 32;
ESTÁ; 42,61,16,55,50,49,44,43,37,30,15,2,70,69,58,54,52,47,31,17,8,7,4;
ESTÃO; 71,69,66,64,57,55,29,21,18,9,3,2;
ETAPA; 56;
ETC; 52,2,34,69,61,57,3,64,56,30,16,68,66,65,59,55,53,50,44,43,39,32,29,28,27,25,21,15,7,6,5,4;
ETFS; 2;
EURO; 4;
EVENTO; 52,57,31,50,53;
EVENTOS; 57,52,50,31,34,30,7,2;
EVENTUAIS; 30,6;
EVENTUAL; 34,7,2;
EVENTUALMENTE; 71;
EVITANDO; 2;
EVITAR; 21,57;
EVOLUINDO; 16;
EVOLUÇÃO; 64,16,7;
EX; 7,52,57,56,44,30,29,4,69,68,65,62,49,47,46,41,28,24,23,21,16,6;
EXATA; 63,12;
EXATAMENTE; 66;
EXATO; 23;
EXATOS; 23;
EXAUSTIVA; 64;
EXCEDA; 68;
EXCEDENTE; 24;
EXCEL; 5,64,58,66,55,50,47,44,37,34,32,31,3,63,36,2;
EXCEÇÃO; 2;
EXCLUI; 48,42;
EXCLUIR; 3,50,36;
EXCLUSIVAMENTE; 54;
EXCLUSIVO; 17;
EXCLUSÃO; 3,63,62,61,48,42;
EXCLUSÕES; 61,50;
EXCLUÍDAS; 61;
EXECUTADA; 5,63,3;
EXECUTAR; 66,59,58,57,51,50,3;
EXECUTARÁ; 27;
EXECUTE; 59;
EXECUÇÃO; 62,61,59,48,42;
EXEMPLIFICA; 3;
EXEMPLIFICANDO; 54,2,65;
EXEMPLIFICAR; 4;
EXEMPLO; 56,33,23,7,65,64,57,53,50,46,41,28,27,21,5,4,3;
EXEMPLOS; 65,25,4;
EXEMPO; 56;
EXERC; 28,27;
EXERCICIO; 27;
EXERCÍCIO; 37,28;
EXIGE; 56;
EXIGEM; 59;
EXISTA; 6,55,30,16,11,10,4,3,2;
EXISTE; 55,44,36,30,20,3,2;
EXISTEM; 55,50,69,66,64,57,52,47,44,37,6,3,2;
EXISTENTE; 54,8;
EXISTENTES; 27,28;
EXISTIR; 3,16;
EXISTÊNCIA; 64,56;
EXPEDIENTE; 57,24;
EXPIRADO; 52;
EXPIRAÇÃO; 68,52;
EXPLICADA; 8;
EXPLICADAS; 29,2;
EXPLICADO; 65,57,59,44,37,36,35,30;
EXPLICADOS; 67,57,56,16,6;
EXPLICAÇÃO; 4;
EXPLICAÇÕES; 68,52,36,24,7;
EXPONENCIAL; 24,49,30,23;
EXPORTADA; 66;
EXPORTADOS; 57;
EXPORTAR; 34,64;
EXPORTAÇÃO; 57,64;
EXPORTÁ-LA; 63;
EXPORTÁ-LAS; 64;
EXPORTÁVEIS; 64,66;
EXPORTÁVEL; 64;
EXPOSIÇÃO; 56;
EXPOSIÇÕES; 56;
EXPOSTAS; 22;
EXPRESSAMENTE; 57;
EXPRESSO; 17,49,30,7;
EXTENSÃO; 7;
EXTERNA; 7,2;
EXTERNO; 69;
EXTERNOS; 57,7;
EXTRAIR; 64,2;
EXTRAORDINÁRIAS; 53;
EXTRATO; 64,65,17,55,49,30,27;
EXTRATOS; 69;
EXTRAÍDO; 7;
