D-1; 64,52,49,23;
D0; 24,64,57,17;
DA; 17,24,2,52,44,58,57,23,4,64,37,50,49,47,25,21,7,55,35,22,16,56,54,27,65,34,53,51,20,19,68,43,30,14,45,40,36,5,3,71,69,42,28,6,62,60,59,46,41,33,32,13,11;
DADA; 49,34,7;
DADAS; 69,2;
DADO; 16,69,64,62,61,58,54,6,2;
DADOS; 3,4,64,50,35,68,66,30,29,28,27,5,2;
DAQUELA; 36;
DAQUELES; 53;
DAR; 70,69,58,2;
DAS; 58,57,56,49,5,22,54,51,66,64,50,44,17,7,65,55,48,47,37,32,30,26,24,23,14,4,3,2;
DATA; 24,52,58,2,50,47,62,17,36,22,42,25,23,7,59,34,31,53,49,44,37,35,21,65,43,56,30,27,19,12,57,39,5,63,51,48,45,40,28;
DATA-BASE; 24;
DATA-COM; 52;
DATA-EX; 52;
DATAS; 50,55,49,62,24,3;
DAYTRADE; 44,57,37;
DE; 2,64,7,57,50,24,17,65,58,23,54,56,30,44,52,69,47,21,4,55,37,5,25,3,51,34,62,29,16,68,43,6,61,42,49,53,39,35,32,36,67,31,66,38,12,11,8,28,27,22,46,71,63,60,59,48,41,33,26,45,18,10,40,19,15,14,70,13,9,20,1;
DEB; 30;
DEBENTURE; 30;
DEBÊNTURE; 30,29,5,2;
DEBÊNTURES; 5,2,30,31;
DECIMAIS; 17,30;
DECIMAL; 52;
DEDUZINDO-SE; 16;
DEFASAGEM; 2,5;
DEFAULT; 53,47,4;
DEFEITOS; 12;
DEFINDOS; 67;
DEFINE; 56,69,65,17;
DEFINEM; 30;
DEFINIDA; 47,44,30,29;
DEFINIDAS; 57,17,69,61,30,15,6,2;
DEFINIDO; 50,35,17,54,13,7,56,37;
DEFINIDOS; 7,56,54,3,69,68,67,51,37,6,4,2;
DEFININDO; 24;
DEFINIR; 54,20,17,7,57,2,70,68,56,55,51,49,44,29,23,12;
DEFINIÇÃO; 57,69,64,56,36;
DEIXADA; 47;
DEIXADO; 52,44,42,37,21;
DEIXADOS; 65;
DEIXANDO; 62,51,4;
DEIXAR; 57,28,55,53,50,49,45,44,40,30,7;
DEIXARÁ; 53;
DELA; 50;
DELAS; 44,37,31;
DELE; 51;
DEMAIS; 58,54,28,17,69,56,50,47,44,42,30,10,3;
DEMONSTRA; 64;
DEMONSTRADA; 71,18,9;
DEMONSTRADO; 20,8;
DEMONSTRADOS; 53,24;
DEMONSTRANDO; 64;
DEMONSTRAR; 4;
DEMONSTRATIVO; 64;
DEMONSTRATIVOS; 69;
DEMONSTRAÇÃO; 17;
DEMORAM; 5;
DEMORAR; 5;
DENTRE; 30;
DENTRO; 58,69,17,6,2,67,56,55,50,25,16,13,7,3;
DEPENDEM; 56;
DEPENDENDO; 58,49,4;
DEPOIS; 69,50,17,12,7,5;
DEPOSITADAS; 21;
DEPOSITADO; 21;
DEPOSITADOS; 21;
DEPÓSITO; 21,37;
DEPÓSITOS; 21;
DERIVADOS; 57,6;
DERIVATIVOS; 44,28,5,26;
DESABILITADO; 36;
DESABILITADOS; 44;
DESATIVA; 71,18,9;
DESATIVAR; 71,70,18,9;
DESATIVAÇÃO; 71,18,9;
DESBLOQUEADA; 42;
DESBLOQUEADO; 68;
DESBLOQUEANDO; 42;
DESBLOQUEAR; 42,71,69,48;
DESBLOQUEIA; 71;
DESBLOQUEIO; 42,71,48,67;
DESBLOQUEIOS; 48,42;
DESCOBERTO; 56;
DESCONTANDO; 7;
DESCONTO; 37,34,7;
DESCREVE; 58;
DESCREVER; 56,21;
DESCRITAS; 51,26;
DESCRITIVO; 17,58,65,57,55,50,47,44,37,25,23,7;
DESCRITO; 68,58,57,51,43,22,16;
DESCRITOS; 55,65,57,53,50,47;
DESCRIÇÃO; 30,56,53,69,65,4,63,55,27,8;
DESCRIÇÕES; 57;
DESDE; 58,34;
DESDOBRAMENTO; 52;
DESDOBRO; 52;
DESEJA; 70,62,3,65,64,61,51,43,39;
DESEJADA; 34,70,64,59,35,18,3;
DESEJADAS; 66,3;
DESEJADO; 71,4,64,53,44,36,25,24,23,9,6,3;
DESEJADOS; 57;
DESEJAR; 47;
DESENCADEADO; 12;
DESLIGADO; 7;
DESLOGAR; 68;
DESMARCAR; 70;
DESNECESSÁRIA; 64;
DESPESA; 2,53;
DESPESAS; 64,44,37,21;
DESPREZANDO; 55;
DESSA; 65,35,25,23,16;
DEST; 52;
DESTA; 22,57,30,70,67,66,62,58,53,50,44,27,25,24,23,17;
DESTAS; 58,55,50,11,2;
DESTE; 52,69,59,56,49,22,21,16,7;
DESTES; 62,57,56,27,22;
DESTINATÁRIO; 65;
DESTINATÁRIOS; 64;
DESTINO; 50,65,52,11,10,42,21;
DETALHADA; 69,65,64,53,15;
DETALHADAMENTE; 64;
DETALHAMENTE; 29;
DETALHAMENTO; 42;
DETALHE; 50,44;
DETALHES; 7,2,64,69,67,58,57,56,50,44,37,30,21,8,6;
DETERMINADA; 66,62,56,55,50,42,25;
DETERMINADAS; 4;
DETERMINADO; 62,64,61,70,2,69,67,63,59,57,54,53,43,39,34,23,20,16,12,6,5,4;
DETERMINADOS; 70,65,64;
DETERMINAR; 51;
DEVE; 57,50,17,58,55,54,37,4,2,65,45,44,40,35,31,30,27,24,10,7,71,69,68,62,56,51,49,47,42,32,25,23,14,13,11,3;
DEVE-SE; 43,50,49,41,39,38,20,64,58,55,46,44,30,21;
DEVEM; 58,2,65,57,54,51,69,64,62,53,50,49,45,44,40,25,21,17,11,5,4,3;
DEVENDO; 68;
DEVERÁ; 54,44,7,68,45,40,2;
DEVERÃO; 7,4;
DEVIDAMENTE; 2,59,45,40,5;
DEVIDO; 7,2;
DEVIDOS; 57;
DEVOLUÇÃO; 37,44;
DI1; 44,28;
DIA; 24,2,61,59,21,58,7,64,15,53,25,22,5,65,49,31,55,52,50,45,44,43,42,40,37,36,34,16;
DIANTE; 24,23,33,25;
DIARIAMENTE; 7,56,30,25,64,55,52,49,5;
DIAS; 17,35,50,24,23,30,25,68,62,36,33,2,63,49,38,37,5;
DICAS; 36;
DIFERE; 30;
DIFERENCIADAS; 54;
DIFERENCIADOS; 2;
DIFERENCIAR; 53;
DIFERENCIAÇÃO; 50;
DIFERENTE; 68,55,34,27,21,17,7,4,2;
DIFERENTES; 44,68,43,37,30,25,24,23,2;
DIFERENÇA; 58,53,49,35,21,16,6;
DIFERENÇAS; 50;
DIFERIDO; 25,57;
DIGITADAS; 2;
DIGITADO; 52,44,43,37;
DIGITANDO-SE; 3;
DIGITAR; 55,30,3;
DIGITAÇÃO; 30;
DIGITE; 47;
DINHEIRO; 21,53,52,2;
DINÄMICA; 7;
DIRECIONADO; 3;
DIREITA; 66;
DIREITO; 52,51;
DIRETA; 3,4;
DIRETAMENTE; 5,51,66,64,57,56,2,65,61,58,53,50,35,29,20,17,7,3;
DIRETO; 64,63,57,55,45,40,16,6;
DIRETORIA; 65,2;
DIRIAMENTE; 25;
DISPENSÁVEL; 57,27;
DISPONIBILIDADE; 5;
DISPONIBILIZA; 66,34;
DISPONIBILIZADA; 66;
DISPONIBILIZADAS; 2;
DISPONIBILIZADO; 70;
DISPONIBILIZADOS; 69,2;
DISPONIBILIZAÇÃO; 2;
DISPONIVEIS; 5;
DISPONÍVEIS; 70,52,67,65,64,51,5,69,66,61,57,56,55,30,25,15,13,3,2;
DISPONÍVEL; 64,28,5,2,52,35,30,27,19,17,7,3;
DISSO; 6;
DISTINGUIR; 53,21;
DISTINTOS; 3;
DISTORÇÃO; 2;
DISTORÇÕES; 12;
DISTRIBUI; 17;
DISTRIBUIDOR; 54,4;
DISTRIBUIDORES; 54;
DISTRIBUIR; 54;
DISTRIBUIÇÃO; 17,54;
DITOS; 57;
DIVERSAS; 64,24,23,13;
DIVERSOS; 64,17,56,51,42,5,2;
DIVIDE; 4;
DIVIDENDO; 52;
DIVIDENDOS; 17,52,21;
DIVIDIDO; 59,16;
DIVIDIDOS; 61,26;
DIVULGADA; 5;
DIVULGADOS; 2;
DIVULGAR; 5;
DIVULGAÇÃO; 4,2;
DIZ; 44;
DIÁRIA; 65,57,25,24,23,56,49,32,30,17;
DIÁRIAS; 5,64,7,2,1;
DIÁRIO; 61,2,5,58,7,59,57,50,48,47,42,64,62,60,56,55,51,44,37,32,30,22,21,17,15;
DIÁRIOS; 2,63,61,59,57,25,24,23;
DO; 52,2,7,30,17,57,50,24,69,64,58,44,23,6,54,5,56,55,49,43,37,65,51,47,42,21,61,31,4,53,25,16,3,62,36,27,10,59,15,12,48,32,28,13,68,35,34,22,67,66,63,45,14,11,70,40,33,29,18,9,8;
DOADO; 43;
DOADOR; 43;
DOADOS; 64;
DOANDO; 43;
DOCUMENTO; 3;
DOIS; 24,2,58,52,51,34,17,6,3;
DOL; 44,57,28;
DOLAR; 4;
DOMICÍLIO; 7;
DOMÍNIO; 66;
DOS; 54,7,64,17,2,57,65,58,30,62,56,50,27,43,16,59,55,52,51,22,63,61,53,49,45,44,37,35,28,21,15,13,5,3;
DT; 44,37;
DTVM; 14,4;
DUAS; 3,57,49,35,66,59,58,56,55,50,47,44,37,32,31,22,6,5;
DUPLA; 30;
DUPLICAR; 51;
DUPLICIDADE; 2;
DUPLO; 44,65,50;
DURANTE; 5;
DÉBITO; 57;
DÊ; 34,21;
DÓLAR; 4,5;
DÚVIDA; 24,23,25;
