SABER; 54;
SAIBA; 51,27;
SAIR; 71,68,27;
SALDO; 64,57,17,52,50,49,24;
SALDOS; 64,57,50,65,55,22;
SALVANDO; 50,19,12;
SALVAR; 6,55,48,30,3;
SALVO; 57,17,69,65,49,30,24,23,21,18,11,7;
SAÍDA; 21,53,17,2;
SAÍDAS; 2;
SE; 7,17,55,2,44,57,37,23,21,30,6,69,52,47,24,65,58,49,3,50,70,61,56,54,42,43,25,5,35,16,4,68,67,66,64,51,39,34,31,27,12,62,59,53,45,40,38,36,33,22,19,15,13,11,71,48,46,41,29,28,20,14,10,8;
SECUNDÁRIA; 14;
SECUNDÁRIO; 2;
SEGMENTO; 23;
SEGMENTOS; 64;
SEGREGADOS; 64;
SEGUE; 17,23,69,65,53,33,25,7,4;
SEGUEM; 68,65,64,56,54,52,24,7,6;
SEGUIDA; 65,58,64,57,51,50,45,40,35,11,10,6;
SEGUIDAMENTE; 43,3,49,48,39,38;
SEGUIDO; 44;
SEGUIDOS; 50,21;
SEGUINTE; 61,20,15,2,59,50,35,33,17,5;
SEGUINTES; 24,61,21,16,2;
SEGUIR; 58,55,50,47,43,67,64,49,44,39,38,37,32,29,6;
SEGUNDA; 66,23;
SEGUNDO; 64,57,34,3,2;
SEGURANÇA; 67,71,70,69,68,51,7;
SEJA; 50,24,17,54,52,35,34,30,14,7,4,3,69,58,56,55,37,22,5,2,64,62,59,53,51,49,47,44,42,27,25,21;
SEJAM; 3,70,65,62,59,58,51,50,49,45,40,30,29,25,22;
SELECIONADA; 34;
SELECIONADAS; 45,40;
SELECIONADO; 62,61,20;
SELECIONADOS; 5;
SELECIONANDO; 5;
SELECIONAR; 30,55,70,47,50,62,53,44,43,34,3,63,61,49,48,41,39,38,37,36,32,20,5;
SELECIONE; 71,18,9;
SELIC; 57,25,5;
SEM; 52,58,7,55,50,47,44,37,34,21,2,69,62,61,56,51,43,40,30,29,19,17,12,6,3;
SEMANA; 25,24,23;
SEMANAS; 5;
SEMELHANTE; 69,21,7;
SEMESTRAL; 24;
SEMESTRE; 50;
SEMPRE; 7,54,52,34,49,36,21,17,16,12,4,2,63,62,30,27,24,23,5,3,71,70,66,65,64,61,56,55,51,48,43,42,39,35,33,28,19,18,11;
SENDO; 17,58,30,2,49,21,55,52,50,42,24,5,70,69,68,66,64,63,61,59,57,54,51,48,44,43,37,10,8,7,6,3;
SENHA; 68,69,3,71;
SENHAS; 68;
SENSIBILIZADA; 2;
SENSIBILIZADAS; 61,59;
SENSIBILIZADO; 48,42;
SENSIBILIZADOS; 59;
SENSIBILIZEM; 61;
SENTIDO; 65;
SEPARADA; 57,44,42;
SEPARADO; 51;
SEPARADOS; 7,65,58,44;
SEQUENCIAL; 62;
SEQUÊNCIA; 58,44,35,22,6,3;
SER; 2,65,52,57,54,7,50,24,51,49,42,5,44,30,4,55,37,3,58,47,43,21,64,61,23,17,68,62,56,40,34,31,25,69,53,45,32,27,15,71,66,46,41,39,36,35,29,20,16,14,11,10,6,59,38,26,18,13,12,9,8;
SEREM; 68,71,70,69,61,58,57,56,45,40,30,20,18,9,7,3,2;
SERIA; 56,52,21;
SERIAM; 7;
SERVE; 7,59,56,53,30,17,13,3;
SERVEM; 54,21,16,6;
SERVINDO; 34,56;
SERVIR; 56,23,7,2;
SERVIREM; 2;
SERÁ; 24,3,34,2,55,50,17,4,69,57,18,9,71,70,54,52,51,43,36,21,20,11,7,68,65,62,49,48,44,37,35,33,30,28,27,23,16,10,8;
SERÃO; 55,61,53,50,65,24,18,16,6,3,2,70,69,64,56,51,49,47,41,30,28,27,26,25,23,22,20,14,13,9,7,4;
SESSÃO; 2;
SETAR; 12;
SETOR; 4;
SETORES; 4,30;
SEU; 64,56,55,54,6,5;
SEUS; 56,54,42,6;
SEXO; 6;
SEÇÃO; 64,7,58,29,17,6,51,36,20,4,67,55,53,50,44,37,30,27,21,16,14,8,2;
SEÇÓES; 58;
SEÇÕES; 59,58,26,16,15;
SHARPE; 64;
SI; 52;
SIDO; 2,57,66,65,64,61,58,52,51,45,40,6,5,3;
SIGINIFCA; 59;
SIGNIFICA; 36,65,64,22,17,12;
SIM; 71,54,56,50,24,23,18,9,7,4,2;
SIMPLES; 2,64,53,21;
SIMPLESMENTE; 68,65;
SIMULADA; 7;
SIMULAÇÃO; 34,7;
SIMULAÇÕES; 34,29;
SIMULTÂNEO; 68;
SINACOR; 7,13,2,57;
SINAL; 55,53,50;
SIRVAM; 22;
SISTEMA; 7,57,50,69,58,30,2,52,4,68,65,23,17,6,64,54,53,35,25,5,67,29,22,21,16,8,3,71,62,56,51,49,45,27,13,63,59,55,48,44,40,37,34,24,70,66,47,43,42,41,38,36,32,28,26,20,18,14,10,9;
SISTEMAS; 30,57,7;
SITE; 5,3;
SITES; 30;
SITUAÇÃO; 58,68,65,53,21,15,2;
SITUAÇÕES; 66,57;
SO; 61;
SOB; 50;
SOBRA; 7;
SOBRE; 54,58,7,3,2,5,53,36,24,23,20,17,6;
SOBREPÔE; 37;
SOBREPÕE; 54;
SOBRETUDO; 62;
SOFREU; 61,15,2;
SOLCITAR; 65;
SOLICITADA; 4;
SOLICITADO; 4,69;
SOLICITAR; 66,65,59,4;
SOLICITARÁ; 69,68;
SOLUÇÃO; 50;
SOMA; 34;
SOMADO; 21;
SOMANDO; 54;
SOMATÓRIA; 22,24;
SOMATÓRIO; 66,16;
SOMENTE; 67,58,54,50,18;
SPLIT; 52;
SPREAD; 43;
SQL; 66;
STATUS; 61,15,2,62,51,36,18,17,9;
STAUS; 36;
SUA; 69,2,62,61,59,56,22,17;
SUAS; 70,58,57,22;
SUB; 56;
SUBCATEGORIA; 17;
SUBORIGEM; 63;
SUBSCREVER; 52;
SUBSCRIÇÃO; 52;
SUBSTITUIÇÃO; 68;
SUBTIPO; 56;
SUBTIPOS; 56;
SUCESSIVOS; 24;
SUCESSO; 62,61,15,2;
SUCESSÃO; 59;
SUGESTAO; 52;
SUPERIOR; 49,45,40,23,3;
SUPERIORES; 64;
SUPORTA; 26;
SUPORTE; 2;
SUPRE; 64;
SWAP; 49;
SWAPS; 49;
SÂO; 7;
SÃO; 2,7,65,57,64,56,67,50,30,61,58,17,6,70,69,63,53,49,47,29,4,62,60,59,55,54,52,44,40,31,25,21,20,16,5,3;
SÉRIE; 32,30,28,2,29;
SÉRIE-COTAÇÃO; 30;
SÉRIE-TAXA; 30;
SÉRIES; 32;
SÓ; 61,62,17,70,65,59,57,53,51,45,42,40,32,30,21,19,12;
