﻿/*************************************************
Guia de Modificações: App_Themes
**************************************************

Web/Loading.gif - modificado imagem
Editors/styles.css - acrescentado Custom Classes Financial no final do arquivo

skins alteradas:
- ASPxDateEdit.skin
- ASPxMenu.skin - GutterWidth
- ASPxSpinEdit.skin
- ASPxUploadControl.skin
- ASPxComboBox.skin - Disable Style
------------------------------------------------------



Outras mexidas - AspxLoadingPanel  e AspxGridview