02/09/2013 16:58:44 - Arquivo já importado: "C:\inetpub\wwwroot\Financial\ImportaCVM\ImportaCVM\bin\Debug\downloads\cvm_cotas_2013-08-27.zip" - Não foi feita nova importação
02/09/2013 16:58:45 - Arquivo já importado: "C:\inetpub\wwwroot\Financial\ImportaCVM\ImportaCVM\bin\Debug\downloads\cvm_cotas_2013-08-28.zip" - Não foi feita nova importação
02/09/2013 16:58:45 - Arquivo já importado: "C:\inetpub\wwwroot\Financial\ImportaCVM\ImportaCVM\bin\Debug\downloads\cvm_cotas_2013-08-29.zip" - Não foi feita nova importação
02/09/2013 16:58:46 - Arquivo já importado: "C:\inetpub\wwwroot\Financial\ImportaCVM\ImportaCVM\bin\Debug\downloads\cvm_cotas_2013-08-30.zip" - Não foi feita nova importação
02/09/2013 16:58:47 - Erro ao fazer download do arquivo "C:\inetpub\wwwroot\Financial\ImportaCVM\ImportaCVM\bin\Debug\downloads\cvm_cotas_2013-09-02.zip" - Arquivo para download não encontrado para os parâmetros especificados
