TABELAS; 2;
TABULAR; 12,3;
TAMBÉM; 13;
TANTO; 15;
TELA; 2;
TEMOS; 11,3;
TENHA; 11;
TENHAM; 2;
TER; 15;
TIPOS; 12,9;
TIRANDO; 7,5;
TODAS; 12,2;
TODO; 9,4;
TODOS; 9,4;
TOTAL; 4;
TOTALIZAÇÃO; 4;
TOTALIZAÇÕES; 4;
TRÊS; 2;
TÍTULO; 6;
TÍTULOS; 6;
