MAIOR; 13,11;
MAIS; 5;
MANTIDOS; 2;
MARCAÇÃO; 4;
MARÇO; 11;
MENOR; 13;
MENOS; 7,5;
MERCADO; 5,7,4,6,9;
MESES; 13,12,11;
MESMO; 4;
MOMENTO; 6,7,5,2;
MOSTRA; 5;
MULTIPLICADO; 7,5;
MÉDIA; 7,5;
MÉDIO; 7,5;
MÊS; 11,12;
