PAPEL; 5;
PAPÉIS; 9;
PARA; 2,15,10,6,4;
PASSA; 4;
PASSOS; 15;
PATRIMÔNIO; 4;
PAULISTA; 1,2;
PDF; 15;
PELA; 7,5,11;
PELAS; 7,6,5;
PELOS; 9,2;
PERCENTUAIS; 11;
PERCENTUAL; 14,11,9,4;
PERFIL; 9;
PERFORMANCE; 10;
PERMITEM; 12,9;
PERÍODO; 14,15,13,12,11,2;
PERÍODOS; 14,13;
PESSOA; 6;
PIZZA; 9;
PODE; 6;
PODE-SE; 9,13,12;
PODEM; 15;
PODEMOS; 13,11,10,4;
PODERÁ; 4;
PONDERADO; 7,6,5;
POR; 4,14,5;
PORTAL; 2,1;
PORTFOLIO; 4,3;
POSITIVOS; 13;
POSIÇÃO; 5,7,6,4;
POSSUAM; 9;
POSSÍVEL; 15,12,9,2;
PRESENTE; 6;
PRESENTES; 4,3;
PRESSIONE; 15;
PREÇO; 7,6,5,4;
PRIMEIRA; 12,11,2;
PRIMEIRO; 3;
PRINCIPAIS; 2;
PRIVATE; 1,2;
PROJETADA; 4;
PROSSEGUIRMOS; 2;
PRÓPRIA; 4;
PU; 7,5,6,4;
