ABAIXO; 15,13,4;
ABSOLUTOS; 9;
ACESSAR; 15;
ACESSO; 15,2;
ACIMA; 13;
ACOMPANHAMENTO; 12;
ACOMPANHAR; 13;
ACORDO; 9,6;
ACUMULADA; 14,12;
ACUMULADO; 12;
ADICIONAIS; 4;
ADQUIRIDAS; 7,6,5;
AGRUPANDOS; 4;
ALGUMAS; 13;
ALGUNS; 2;
ALIENADAS; 7,6,5;
ALOCAÇÃO; 9;
ALTERAR; 10,2;
ALTERNAR; 12,9;
ALTO; 9;
ALÉM; 13,4;
AMBOS; 14;
ANALÍTICO; 5;
ANO; 11,6;
ANTERIOR; 4,6,2;
ANTES; 2;
AO; 4,2,11,7,5,12,6;
AOS; 2;
APENAS; 9,4;
APLICA; 9;
APLICAÇÃO; 12,2;
APRESENTA; 12,11,9,14,4;
APRESENTADAS; 13,4,3;
APRESENTADO; 11;
APRESENTADOS; 15,9,4,2;
APRESENTAM; 15;
APRESENTANDO; 9;
APRESENTAR; 2;
APURADOS; 6;
APÓS; 2;
AQUELE; 15;
AQUISIÇÕES; 4;
AS; 2,9,5,4,12;
ATIVIDADES; 6;
ATIVO; 4,7,5;
ATIVOS; 4,9,7,5,3;
ATRAVÉS; 15,13,12,9;
ATUALIZAÇÃO; 6,4;
ATUALMENTE; 2;
ATUAÇÃO; 9;
ATÉ; 6,12,7,5,4,2;
AUMENTADA; 2;
AUMENTO; 12;
AUTORIZADOS; 2;
AVALIAR; 10;
AÇÕES; 5,7,9,4;
