SALDO; 4,6;
SAÍDA; 6,4;
SAÍDAS; 4;
SE; 9,4;
SEGMENTADA; 5;
SEGUINTES; 9,12,4,3;
SEGUNDA; 11;
SEJA; 2,11,6;
SELECIONADA; 4;
SELECIONE; 15;
SEMPRE; 2;
SENDO; 9;
SER; 15,11,4;
SERÁ; 11,4;
SERÃO; 9,2;
SETORES; 9;
SEÇÃO; 10,3;
SEÇÕES; 2;
SIGA; 15;
SIMPLES; 5;
SINTÉTICO; 5;
SOBRE; 2,6,4,10,3;
SUA; 12;
SÃO; 4,3,13,12;
