VALOR; 5,4,11,7,6;
VALORES; 4,12,9,7,6,5,2;
VARIAR; 6;
VENCE; 6;
VENCIMENTO; 6;
VENDA; 6,7,5;
VENDAS; 4;
VERIFICAR; 13;
VEZES; 11;
VISUALIZADO; 15;
VISUALIZADOS; 7,5,4,2;
VISUALIZAR; 3;
VISUALIZAÇÃO; 9,2,12;
VOL; 12,13;
